1. Overview
…
5 Extracting outputs

5.1 Extractor functions

Function fit() derives values for the unknown quantities, but does not return these quantities. For that, we need an extractor function. The two most important extractor functions in bage are augment() and components(). Both of these are generic functions that work on many sorts of R objects (see here and here).

5.2 augment()

augment() returns the original dataset plus some additional columns of estimated values,

aug <- mod |>
  augment()
aug
#> # A tibble: 912 × 9
#>    age   sex    ethnicity  year injuries  popn .observed
#>    <fct> <chr>  <chr>     <int>    <int> <int>     <dbl>
#>  1 0-4   Female Maori      2000       12 35830 0.000335 
#>  2 5-9   Female Maori      2000        6 35120 0.000171 
#>  3 10-14 Female Maori      2000        3 32830 0.0000914
#>  4 15-19 Female Maori      2000        6 27130 0.000221 
#>  5 20-24 Female Maori      2000        6 24380 0.000246 
#>  6 25-29 Female Maori      2000        6 24160 0.000248 
#>  7 30-34 Female Maori      2000       12 22560 0.000532 
#>  8 35-39 Female Maori      2000        3 22230 0.000135 
#>  9 40-44 Female Maori      2000        6 18130 0.000331 
#> 10 45-49 Female Maori      2000        6 13770 0.000436 
#> # ℹ 902 more rows
#> # ℹ 2 more variables: .fitted <rdbl<1000>>, .expected <rdbl<1000>>

The columns of estimated values are .observed, .fitted, and .expected.

aug |>
  select(.observed, .fitted, .expected) 
#> # A tibble: 912 × 3
#>    .observed                    .fitted                  .expected
#>        <dbl>               <rdbl<1000>>               <rdbl<1000>>
#>  1 0.000335    3e-04 (0.00023, 0.00039)   3e-04 (0.00026, 0.00034)
#>  2 0.000171  7.8e-05 (5.7e-05, 0.00011)   7.5e-05 (6.1e-05, 9e-05)
#>  3 0.0000914   1e-04 (7.4e-05, 0.00014)   1e-04 (8.5e-05, 0.00012)
#>  4 0.000221  0.00041 (0.00031, 0.00053) 0.00045 (0.00041, 0.00051)
#>  5 0.000246  0.00038 (0.00028, 0.00048)   4e-04 (0.00036, 0.00046)
#>  6 0.000248  0.00035 (0.00026, 0.00045) 0.00037 (0.00032, 0.00042)
#>  7 0.000532  0.00038 (0.00029, 0.00048) 0.00036 (0.00031, 0.00041)
#>  8 0.000135  0.00031 (0.00024, 0.00041)   0.00034 (3e-04, 0.00038)
#>  9 0.000331  0.00033 (0.00025, 0.00043) 0.00033 (0.00029, 0.00038)
#> 10 0.000436    0.00031 (0.00023, 4e-04)   3e-04 (0.00026, 0.00035)
#> # ℹ 902 more rows
…
.observed is a “direct” estimate of the rate, obtained by dividing the the outcome variable by the population at risk;

.expected is a model-based estimate of the rate, based purely on model predictors (eg age, sex, time); and

.fitted is a model-based estimate of the rate that is a compromise between .observed and .expected.

5.3 components()

components() is used to extract values for higher-level parameters. It returns values for all the parameters.

comp <- mod |>
  components()
comp
#> # A tibble: 89 × 4
#>    term        component level                   .fitted
#>    <chr>       <chr>     <chr>              <rdbl<1000>>
#>  1 (Intercept) effect    (Intercept) -1.7 (-3.4, -0.049)
#>  2 age         effect    0-4           -1.7 (-3.4, 0.17)
#>  3 age         effect    5-9           -2.9 (-4.7, -1.1)
#>  4 age         effect    10-14        -2.5 (-4.3, -0.65)
#>  5 age         effect    15-19           -0.81 (-2.6, 1)
#>  6 age         effect    20-24         -0.73 (-2.6, 1.1)
#>  7 age         effect    25-29           -0.84 (-2.7, 1)
#>  8 age         effect    30-34        -0.92 (-2.7, 0.97)
#>  9 age         effect    35-39        -0.93 (-2.8, 0.98)
#> 10 age         effect    40-44        -0.95 (-2.7, 0.97)
#> # ℹ 79 more rows
…
5.5 Rvecs

Draws from probability distributions can be awkward to work with, so bage uses a special type of vector, called an “rvec”, implemented by package rvec. An rvec contains multiple draws, but tries to behave as much as possible like a standard numerical vector. The printout of .fitted and .expected in the aug object above shows medians and 95% credible intervals.

5.6 Graphing outputs

The best way to understand output from a fitted model it to graph it. We first need to prepare data for the graph. We select values for 2018 and use the draws_ci() function from rvec to create 95% credible intervals.

data_plot <- aug |>
  filter(year == 2018) |>
  mutate(draws_ci(.fitted))
data_plot |>
  select(starts_with(".fitted"))
#> # A tibble: 48 × 4
#>                       .fitted .fitted.lower .fitted.mid .fitted.upper
#>                  <rdbl<1000>>         <dbl>       <dbl>         <dbl>
#>  1 0.00023 (0.00017, 0.00029)     0.000170    0.000226      0.000293 
#>  2   5.8e-05 (4.2e-05, 8e-05)     0.0000421   0.0000583     0.0000798
#>  3 8.7e-05 (6.4e-05, 0.00011)     0.0000638   0.0000867     0.000114 
#>  4 0.00036 (0.00028, 0.00046)     0.000285    0.000363      0.000461 
#>  5 0.00035 (0.00027, 0.00044)     0.000269    0.000346      0.000441 
#>  6 0.00032 (0.00025, 0.00041)     0.000248    0.000324      0.000412 
#>  7 0.00034 (0.00026, 0.00043)     0.000259    0.000338      0.000435 
#>  8   0.00027 (2e-04, 0.00036)     0.000205    0.000272      0.000359 
#>  9 0.00028 (0.00022, 0.00037)     0.000215    0.000282      0.000372 
#> 10 0.00024 (0.00018, 0.00031)     0.000178    0.000236      0.000306 
#> # ℹ 38 more rows
…
We fit our exactly the same model that we use for the complete dataset.

mod_mis <- mod_pois(injuries ~ age * sex + age * ethnicity + year,
                    data = injuries_mis,
                    exposure = popn) |>
  fit()

bage creates a new variable, called .injuries containing imputed values for the missing outcomes.

mod_mis |>
  augment() |>
  filter(year %in% years_mis)
#> # A tibble: 240 × 10
#>    age   sex    ethnicity  year injuries    .injuries  popn .observed
#>    <fct> <chr>  <chr>     <int>    <int> <rdbl<1000>> <int>     <dbl>
#>  1 0-4   Female Maori      2010       NA   11 (5, 20) 43440        NA
#>  2 5-9   Female Maori      2010       NA     3 (0, 7) 36340        NA
#>  3 10-14 Female Maori      2010       NA     3 (0, 8) 35520        NA
#>  4 15-19 Female Maori      2010       NA   14 (7, 23) 34960        NA
#>  5 20-24 Female Maori      2010       NA   12 (5, 20) 31060        NA
#>  6 25-29 Female Maori      2010       NA    8 (2, 14) 24000        NA
#>  7 30-34 Female Maori      2010       NA    8 (3, 14) 23180        NA
#>  8 35-39 Female Maori      2010       NA    8 (2, 14) 24260        NA
#>  9 40-44 Female Maori      2010       NA    7 (2, 13) 22660        NA
#> 10 45-49 Female Maori      2010       NA    6 (2, 12) 21730        NA
#> # ℹ 230 more rows
#> # ℹ 2 more variables: .fitted <rdbl<1000>>, .expected <rdbl<1000>>
…
9 Data models

So far we have ignored the possibility that the input data for our models might be subject to measurement errors. However, injuries variable in the nzl_injuries dataset is subject to a special sort of error: Statistics New Zealand has randomly-rounded the values to base 3 to protect confidentiality.

To deal with measurement error, we add a ‘data model’ to our model.

mod <- mod |>
  set_datamod_outcome_rr3() |>
  fit()

The results from calling augment() now include a variable called .injuries with estimated values for the true, unrounded injury counts.

mod |>
  augment()
#> # A tibble: 912 × 10
#>    age   sex    ethnicity  year injuries    .injuries  popn .observed
#>    <fct> <chr>  <chr>     <int>    <int> <rdbl<1000>> <int>     <dbl>
#>  1 0-4   Female Maori      2000       12  12 (10, 14) 35830 0.000335 
#>  2 5-9   Female Maori      2000        6     5 (4, 7) 35120 0.000171 
#>  3 10-14 Female Maori      2000        3     3 (1, 5) 32830 0.0000914
#>  4 15-19 Female Maori      2000        6     7 (5, 8) 27130 0.000221 
#>  5 20-24 Female Maori      2000        6     6 (4, 8) 24380 0.000246 
#>  6 25-29 Female Maori      2000        6     6 (4, 8) 24160 0.000248 
#>  7 30-34 Female Maori      2000       12  12 (10, 14) 22560 0.000532 
#>  8 35-39 Female Maori      2000        3     4 (2, 5) 22230 0.000135 
#>  9 40-44 Female Maori      2000        6     6 (4, 8) 18130 0.000331 
#> 10 45-49 Female Maori      2000        6     6 (4, 8) 13770 0.000436 
#> # ℹ 902 more rows
#> # ℹ 2 more variables: .fitted <rdbl<1000>>, .expected <rdbl<1000>>

10 Model checking

10.1 Replicate data

A standard Bayesian approach to checking a model is to use the model to generate simulate data and see if the simulated data looks like the actual data. Function replicate_data() creates multiple sets of simulated data.

rep_data <- mod |>
  replicate_data()
rep_data
#> # A tibble: 18,240 × 7
#>    .replicate age   sex    ethnicity  year injuries  popn
#>    <fct>      <fct> <chr>  <chr>     <int>    <dbl> <int>
#>  1 Original   0-4   Female Maori      2000       12 35830
#>  2 Original   5-9   Female Maori      2000        6 35120
#>  3 Original   10-14 Female Maori      2000        3 32830
#>  4 Original   15-19 Female Maori      2000        6 27130
#>  5 Original   20-24 Female Maori      2000        6 24380
#>  6 Original   25-29 Female Maori      2000        6 24160
#>  7 Original   30-34 Female Maori      2000       12 22560
#>  8 Original   35-39 Female Maori      2000        3 22230
#>  9 Original   40-44 Female Maori      2000        6 18130
#> 10 Original   45-49 Female Maori      2000        6 13770
#> # ℹ 18,230 more rows

Comparing full datasets is difficult, so the usual strategy is to calculate summary measures that capture some important feature of the data, and compare those instead. Here we see if the model is properly capturing male-female differences in injury rates.

sex_ratio <- rep_data |>
  count(.replicate, year, sex, wt = injuries) |>
  pivot_wider(names_from = sex, values_from = n) |>
  mutate(ratio = Male / Female)
sex_ratio
#> # A tibble: 380 × 5
#>    .replicate  year Female  Male ratio
#>    <fct>      <int>  <dbl> <dbl> <dbl>
#>  1 Original    2000    279   873  3.13
#>  2 Original    2001    276   846  3.07
#>  3 Original    2002    303   855  2.82
#>  4 Original    2003    330   873  2.65
#>  5 Original    2004    306   840  2.75
#>  6 Original    2005    300   876  2.92
#>  7 Original    2006    291   828  2.85
#>  8 Original    2007    321   843  2.63
#>  9 Original    2008    339   864  2.55
#> 10 Original    2009    303   900  2.97
#> # ℹ 370 more rows
…
10.3 Prior predictive checks

Another way of gaining insights about a model is to look at estimates based purely on the priors, without using data on the outcome variable. In bage, this can be done by calling augment(), components() or forecast() on an unfitted version of the model.

mod |>
  unfit() |>
  components()
#> ℹ Model not fitted, so values drawn straight from prior distribution.
#> # A tibble: 90 × 4
#>    term        component level                  .fitted
#>    <chr>       <chr>     <chr>             <rdbl<1000>>
#>  1 (Intercept) effect    (Intercept) -0.023 (-1.8, 1.8)
#>  2 age         effect    0-4           0.05 (-1.9, 1.9)
#>  3 age         effect    5-9             0.02 (-2.6, 3)
#>  4 age         effect    10-14       -0.072 (-3.5, 3.6)
#>  5 age         effect    15-19        0.013 (-4.2, 4.3)
#>  6 age         effect    20-24       -0.057 (-4.6, 4.4)
#>  7 age         effect    25-29          0.052 (-5.2, 5)
#>  8 age         effect    30-34       -0.026 (-5.8, 5.5)
#>  9 age         effect    35-39       -0.018 (-6.2, 5.6)
#> 10 age         effect    40-44        0.021 (-6.5, 6.2)
#> # ℹ 80 more rows
…
